…
arrange() - sortiranje redova 

 Ova funkcija je veoma slična funkciji filter() s tim što se u ovom slučaju ne izdvaja podskup, nego se redovi sortiraju u odnosu na neku kolonu. Argumenti koje funkcija uzima su tabela sa podacima i skup naziva kolona u odnosu na koje se vrši sortiranje.
 U sledećem primeru sortiraju se osobe po visini rastuće, a ukoliko je visina ista onda se sortiraju po masi.

starwars %>% arrange(height, mass)

# A tibble: 87 x 14
   name  height  mass hair_color skin_color eye_color birth_year sex   gender
                                
 1 Yoda      66    17 white      green      brown            896 male  mascu~
 2 Ratt~     79    15 none       grey, blue unknown           NA male  mascu~
 3 Wick~     88    20 brown      brown      brown              8 male  mascu~
 4 Dud ~     94    45 none       blue, grey yellow            NA male  mascu~
 5 R2-D2     96    32 NA         white, bl~ red               33 none  mascu~
 6 R4-P~     96    NA none       silver, r~ red, blue         NA none  femin~
 7 R5-D4     97    32 NA         white, red red               NA none  mascu~
 8 Sebu~    112    40 none       grey, red  orange            NA male  mascu~
 9 Gasg~    122    NA none       white, bl~ black             NA male  mascu~
10 Watto    137    NA black      blue, grey yellow            NA male  mascu~
# ... with 77 more rows, and 5 more variables: homeworld , species ,
#   films , vehicles , starships 

Za sortiranje u opadajućem poretku koristi se funkcija desc().

starwars %>% arrange(desc(height))

 slice() - izbor redova na osnovu njihove pozicije

Sledeća naredba dovešće do izdvajanja svih redova između rednog broja 5 i 10.

starwars %>% slice(5:10)
#> # A tibble: 6 x 14
#>   name  height  mass hair_color skin_color eye_color birth_year sex   gender
#>                                
#> 1 Leia…    150    49 brown      light      brown             19 fema… femin…
#> 2 Owen…    178   120 brown, gr… light      blue              52 male  mascu…
#> 3 Beru…    165    75 brown      light      blue              47 fema… femin…
#> 4 R5-D4     97    32        white, red red               NA none  mascu…
#> # … with 2 more rows, and 5 more variables: homeworld , species ,
#> #   films , vehicles , starships 
…
   slice_head() bira se samo prva vrsta

   slice_tail() bira se samo poslednja vrsta

   slice_sample() slučajan izbor vrsta. Kao argument funkcije navodi se broj vrsta koje je potrebno izdvojiti

select() - odabir kolona 

Vrlo često u bazama se nalazi veliki broj kolona, a za određene zadatke od interesa su samo neke od njih. 
Funkcija select() omogućava brži izbor podskupa kolona sa kojima programer želi da radi. 

#izbor kolone navođenjem njenog naziva
starwars %>% select(hair_color, skin_color, eye_color)
#> # A tibble: 87 x 3
#>   hair_color skin_color  eye_color
#>                    
#> 1 blond      fair        blue     
#> 2        gold        yellow   
#> 3        white, blue red      
#> 4 none       white       yellow   
#> # … with 83 more rows

#biraju se sve kolone koje se nalaze između hair_color i eye_color
starwars %>% select(hair_color:eye_color)

#izbor svih kolona osim one čiji je naziv hair_color
starwars %>% select(!(hair_color:))

#izbor svih kolona čiji se naziv završava na "color"
starwars %>% select(ends_with("color"))
#> # A tibble: 87 x 3
#>   hair_color skin_color  eye_color
#>                    
#> 1 blond      fair        blue     
#> 2        gold        yellow   
#> 3        white, blue red      
#> 4 none       white       yellow   
#> # … with 83 more rows

mutate() - dodavanje novih kolona 

Često je veoma korisno dodati u bazu nove kolone koje su funkcija već postojećih kolona.

starwars %>%
  mutate(height_m = height / 100) %>%
  select(height_m, height, everything())

#> # A tibble: 87 x 15
#>   height_m height name   mass hair_color skin_color eye_color birth_year sex  
#>                                  
#> 1     1.72    172 Luke…    77 blond      fair       blue            19   male 
#> 2     1.67    167 C-3PO    75        gold       yellow         112   none 
#> 3     0.96     96 R2-D2    32        white, bl… red             33   none 
#> 4     2.02    202 Dart…   136 none       white      yellow          41.9 male 
#> # … with 83 more rows, and 6 more variables: gender , homeworld ,
#> #   species , films , vehicles , starships 

U prethodnom primeru u bazu je dodata još jedna kolona koja predstavlja visinu osobe izraženu u metrima i naziv te kolone je height_m. Kao što se može primetiti, od nove baze funkcijom select() izabrane su kolone height_m i height na početak 
a ostale dolaze nakon njih. Ovo je urađeno da bi se lakše uporedile vrednosti u ove dve kolone, ali i da bi se pokazala mogućnost primene operatora   %>% više puta zaredom na različite funkcije.
relocate() - menja redosled kolona 

Koristi sličnu sintaksu kao funkcija select() i pomera blokove kolona odjednom.
U sledećem primeru potrebno je sve kolone koje se nalaze između onih sa nazivima sex i homeworld staviti pre ostalih kolona.

starwars %>% relocate(sex:homeworld, .before = height)

#> # A tibble: 87 x 14
#>   name  sex   gender homeworld height  mass hair_color skin_color eye_color
#>                               
#> 1 Luke… male  mascu… Tatooine     172    77 blond      fair       blue     
#> 2 C-3PO none  mascu… Tatooine     167    75        gold       yellow   
#> 3 R2-D2 none  mascu… Naboo         96    32        white, bl… red      
#> 4 Dart… male  mascu… Tatooine     202   136 none       white      yellow   
#> # … with 83 more rows, and 5 more variables: birth_year , species ,
#> #   films , vehicles , starships 
…
Vrlo često postoji potreba da se podaci grupišu u odnosu na neko obeležje. To je posebno važno kada se pripremaju podaci za primenu funkcije
summarise().
U sledećem primeru računaju se prosečna visina i masa, ali se to ne čini na nivou cele tabele, nego se računa u odnosu na pol osobe. 

a1 <- group_by(starwars, species, sex)
a2 <- select(a1, height, mass)
a3 <- summarise(a2,
  height = mean(height, na.rm = TRUE),
  mass = mean(mass, na.rm = TRUE)
)

#> Adding missing grouping variables: `species`, `sex`
#> `summarise()` regrouping output by 'species' (override with `.groups` argument)
#> # A tibble: 41 x 4
#> # Groups:   species [38]
#>   species  sex   height  mass
#>          
#> 1 Aleena   male      79    15
#> 2 Besalisk male     198   102
#> 3 Cerean   male     198    82
#> 4 Chagrian male     196   NaN
#> # … with 37 more rows
…
